KPR_Network_Analysis.Rmd
…
kpr_ids <- 
  read_csv("Aerial/DataAnalysis/Network/KsPdRr09-14/FinalAnalysis/Inputs/KSPDRR_Supplemental.csv") %>% 
  clean_names()

## 
##  Column specification 
## cols(
##   ID = col_character(),
##   Alliance = col_character()
## )

kpr_ids

## # A tibble: 24 x 2
##    id    alliance
##    <chr> <chr>   
##  1 BOL   KS      
##  2 CEB   KS      
##  3 DNG   KS      
##  4 DEE   KS      
##  5 IMP   KS      
##  6 KRO   KS      
##  7 MID   KS      
##  8 MOG   KS      
##  9 NOG   KS      
## 10 PAS   KS      
## #  with 14 more rows
…
# Creates tables d0914, d0910, d1112, d1112k, d1314 which contain 
# all relevant centrality measures (including new "wStrengthN")
d0910

## # A tibble: 24 x 20
##    ID    Alliance totKS totPD totRR wStrength bStrength_KPR tStrength_KPR
##    <chr> <chr>    <dbl> <dbl> <dbl>     <dbl>         <dbl>         <dbl>
##  1 BOL   KS        5.3   0.91     0      5.3           0.91          6.21
##  2 CEB   KS        5.28  0.85     0      5.28          0.85          6.13
##  3 DNG   KS        4.35  1.12     0      4.35          1.12          5.47
##  4 DEE   KS        5.17  0.92     0      5.17          0.92          6.09
##  5 IMP   KS        4.74  0.58     0      4.74          0.58          5.32
##  6 KRO   KS        4.12  0.99     0      4.12          0.99          5.11
##  7 MID   KS        4.82  1.63     0      4.82          1.63          6.45
##  8 MOG   KS        4.75  0.83     0      4.75          0.83          5.58
##  9 NOG   KS        4.14  1.33     0      4.14          1.33          5.47
## 10 PAS   KS        5.08  1.2      0      5.08          1.2           6.28
## #  with 14 more rows, and 12 more variables: btStrength_KPR <dbl>,
## #   bStrength_AMA <dbl>, tStrength_AMA <dbl>, EI_KPR_wt <dbl>, wSize <dbl>,
## #   bSize_KPR <dbl>, bStrengthR <dbl>, wStrengthR <dbl>, wStrength_max <dbl>,
## #   wStrengthN <dbl>, bStrength_max <dbl>, bStrengthN <dbl>

d0914

## # A tibble: 22 x 20
##    ID    Alliance totKS totPD totRR wStrength bStrength_KPR tStrength_KPR
##    <chr> <chr>    <dbl> <dbl> <dbl>     <dbl>         <dbl>         <dbl>
##  1 CEB   KS        4.86  0.64  0.49      4.86          1.13          5.99
##  2 DNG   KS        4.46  0.74  0.1       4.46          0.84          5.3 
##  3 DEE   KS        4.96  0.67  0.46      4.96          1.13          6.09
##  4 IMP   KS        4.95  0.64  0.37      4.95          1.01          5.96
##  5 KRO   KS        2.85  0.58  0         2.85          0.58          3.43
##  6 MOG   KS        4.82  0.73  0.33      4.82          1.06          5.88
##  7 NOG   KS        4.03  0.84  0         4.03          0.84          4.87
##  8 PAS   KS        4.62  1.15  0.46      4.62          1.61          6.23
##  9 PON   KS        4.93  1.13  0.42      4.93          1.55          6.48
## 10 QUA   KS        4.9   1.17  0.42      4.9           1.59          6.49
## #  with 12 more rows, and 12 more variables: btStrength_KPR <dbl>,
## #   bStrength_AMA <dbl>, tStrength_AMA <dbl>, EI_KPR_wt <dbl>, wSize <dbl>,
## #   bSize_KPR <dbl>, bStrengthR <dbl>, wStrengthR <dbl>, wStrength_max <dbl>,
## #   wStrengthN <dbl>, bStrength_max <dbl>, bStrengthN <dbl>
…
## 
##  Column specification 
## cols(
##   From = col_character(),
##   To = col_character(),
##   associations = col_double()
## )

ama0914

## # A tibble: 1,970 x 3
##    from  to      hwi
##    <chr> <chr> <dbl>
##  1 AJA   AGA    0.06
##  2 BAG   AGA    0.78
##  3 BTS   AGA    0.61
##  4 GTO   AGA    0.75
##  5 KRI   AGA    0.06
##  6 MUT   AGA    0.12
##  7 MYR   AGA    0.06
##  8 NAP   AGA    0.6 
##  9 OLA   AGA    0.85
## 10 PIK   AGA    0.06
## #  with 1,960 more rows

# kpr = krokers, primas, or rascals.
kpr0914 <- ama0914 %>% 
  filter(from %in% kpr_ids$id) %>% 
  filter(to %in% kpr_ids$id)

kpr0914

## # A tibble: 372 x 3
##    from  to      hwi
##    <chr> <chr> <dbl>
##  1 BIG   BAR    0.25
##  2 DNG   BAR    0.03
##  3 FRE   BAR    0.24
##  4 NAT   BAR    0.14
##  5 NOG   BAR    0.04
##  6 PAS   BAR    0.06
##  7 PON   BAR    0.07
##  8 PRI   BAR    0.19
##  9 QUA   BAR    0.07
## 10 RID   BAR    0.26
## #  with 362 more rows
…
## 
##  Column specification 
## cols(
##   From = col_character(),
##   To = col_character(),
##   associations = col_double()
## )

ama1314

## # A tibble: 1,062 x 3
##    from  to      hwi
##    <chr> <chr> <dbl>
##  1 AJA   AGA    0.11
##  2 BAG   AGA    0.91
##  3 BTS   AGA    0.71
##  4 GTO   AGA    0.73
##  5 KRI   AGA    0.11
##  6 MYR   AGA    0.1 
##  7 NAP   AGA    0.67
##  8 OLA   AGA    0.91
##  9 PIK   AGA    0.12
## 10 SCM   AGA    0.62
## #  with 1,052 more rows

# kpr = krokers, primas, or rascals.
kpr1314 <- ama1314 %>% 
  filter(from %in% kpr_ids$id) %>% 
  filter(to %in% kpr_ids$id)

kpr1314

## # A tibble: 302 x 3
##    from  to      hwi
##    <chr> <chr> <dbl>
##  1 CEB   BIG    0.14
##  2 COO   BIG    0.07
##  3 DEE   BIG    0.14
##  4 DNG   BIG    0.09
##  5 FRE   BIG    0.76
##  6 IMP   BIG    0.11
##  7 MOG   BIG    0.14
##  8 NAT   BIG    0.1 
##  9 NOG   BIG    0.12
## 10 PAS   BIG    0.17
## #  with 292 more rows
…
